…
    # A tibble: 1 x 1
      text                                                                          
      <chr>                                                                         
    1 Дорогая Лара! Я хочу тебе рассказывать о моей лучшей подруге. Её зовут Вера, ~

``` r
#Let me create a tidytext
tidy_text1 <- text1_df %>% 
  unnest_tokens(word, text) #I decided to make all words lower-case here, but then I deleted to_lower = FALSE 
tidy_text1 #Success But I need каким-то to be one word. Overall, all punctuation is removed and all words have become lower-case. I can use this tibble for my lexical complexity analysis
```

    # A tibble: 143 x 1
       word        
       <chr>       
     1 дорогая     
     2 лара        
     3 я           
     4 хочу        
     5 тебе        
     6 рассказывать
     7 о           
     8 моей        
     9 лучшей      
    10 подруге     
    # ... with 133 more rows

``` r
#The count function can help me identify stopwords for my analysis
tidy_text1 %>% 
  count(word, sort = TRUE) 
```

    # A tibble: 102 x 2
       word      n
       <chr> <int>
     1 она       9
     2 и         7
     3 мы        6
     4 в         4
     5 что       3
     6 как       3
     7 вера      2
     8 друг      2
     9 вы        2
    10 были      2
    # ... with 92 more rows
…
  str_remove_all("<.+>") 
RusPrep2 <- readLines("additional_documents/Russian_prepositions.txt", encoding = "UTF-8", warn = FALSE) %>% 
  str_remove_all("<.+>") 
RusConjSubord2 <- readLines("additional_documents/Russian_conjunctions_SUBORD.txt", encoding = "UTF-8", warn = FALSE) %>% 
  str_remove_all("<.+>")
RusInter2 <- readLines("additional_documents/Russian_interjections.txt", encoding = "UTF-8", warn = FALSE) %>% 
  str_remove_all("<.+>")
RusPrtcl2 <- readLines("additional_documents/Russian_particles.txt", encoding = "UTF-8", warn = FALSE) %>% 
  str_remove_all("<.+>") 
AllnonLEX <- c(RusConjCoord2, RusPrep2, RusConjSubord2, RusInter2, RusPrtcl2) 
AllnonLEX_df <- tibble(word = AllnonLEX) #This column name should be the same for using the anti-join()
AllnonLEX_df #Success! 
```

    # A tibble: 151 x 1
       word       
       <chr>      
     1 ""         
     2 "è"        
     3 "äà"       
     4 "íå òîëüêî"
     5 "íî è"     
     6 "òàêæå"    
     7 "òîæå"     
     8 "íè"       
     9 "êàê"      
    10 "òàê è"    
    # ... with 141 more rows

Somehow the anti-join command did not work out so I used the code I
found online

``` r
#main_data2 <- main_data[ ! main_data$NAMES %in% NAMES_list, ] From https://stackoverflow.com/questions/13012509/how-to-delete-rows-from-a-data-frame-based-on-an-external-list-using-r/13012618
Lex_text1 <- tidy_text1[ ! tidy_text1$word %in% AllnonLEX, ]
Lex_text1 #Success there is a problem with каким-то. It is counted as two words. I need to work on making it one word. I tried to work with the text using corpus::text_tokens() but the result for now looks ugly.
```

    # A tibble: 112 x 1
       word        
       <chr>       
     1 дорогая     
     2 лара        
     3 я           
     4 хочу        
     5 тебе        
     6 рассказывать
     7 моей        
     8 лучшей      
     9 подруге     
    10 её          
    # ... with 102 more rows
…
