…
Now that I have all the texts uploaded, I want to create a dataframe
with texts and names

``` r
class(texts) #Interesting! It used to show that this is a list, but now the answer is "character"
```

    [1] "character"

``` r
corpus_df <- tibble(text = texts, Student = filelist_orig)
corpus_df #Success
```

    # A tibble: 24 x 2
       text                                                         Student         
       <chr>                                                        <chr>           
     1 "Ìîÿ äîðîãàÿ! Â òâî¸ì ïîñëåäíåì ïèñüìå, òû ñïðîñèëà ìíå î ì~ Student1_Entry1~
     2 "Ðåáÿòà! Â ìî¸ì ãîðîäå ïîÿâèëàñü íîâàÿ ïðîáëåìà - íàøà âîäà~ Student1_Entry2~
     3 "Îäíàæäû, ñèäÿ ñ îòöîì íà ìåçîíèíå, îí íà÷àë êðèòèêîâàòü ìî~ Student1_Entry3~
     4 "Äîðîãîé Æåíÿ, Êàê òû? Õîòåëà ðàçãîâàðèâàòü ñ òîáîé î íàøåé~ Student2_Entry1~
     5 "Ïðèâåò âñåì. Íàäåþñü, ÷òî âñ¸ õîðîøî ñ âàìè. Ðàíüøå, ñåãîä~ Student2_Entry2~
     6 "Â íàøåì âðåìÿ, ó íàñ åñòü ìíîãèå âàðèàíòû, õî÷åòñÿ ëè íàì ~ Student2_Entry3~
     7 "Äîðîãàÿ Èðèíà! Ñïàñèáî çà âàøå ïèñüìî. Êîíå÷íî, ìîé ëó÷øèé~ Student3_Entry1~
     8 "Ó íàñ â ãîðîäå Í.  åñòü îãðîìíàÿ ïðîáëåìà - â ñëîâîì, ó íà~ Student3_Entry2~
     9 "Ãîâîðÿò, ÷òî  äåòè  íàøåãî âðåìåíè íå óìåþò ðàçãîâàðèâàòü ~ Student3_Entry3~
    10 "Ñåãîäíÿ ÿ õî÷ó ñêàçàòü î ñâîåé ñàìîé  áëèçêîé ïîäðóãîé. Å¸~ Student4_Entry1~
    # ... with 14 more rows
I need to separate student ids and student texts

``` r
corpus_df2 <- corpus_df %>% 
  separate(Student, c("Student", "Entry"))
```

    Warning: Expected 2 pieces. Additional pieces discarded in 24 rows [1, 2, 3, 4,
    5, 6, 7, 8, 9, 10, 11, 12, 13, 14, 15, 16, 17, 18, 19, 20, ...].

``` r
corpus_df2
```

    # A tibble: 24 x 3
       text                                                           Student  Entry
       <chr>                                                          <chr>    <chr>
     1 "Ìîÿ äîðîãàÿ! Â òâî¸ì ïîñëåäíåì ïèñüìå, òû ñïðîñèëà ìíå î ìî¸~ Student1 Entr~
     2 "Ðåáÿòà! Â ìî¸ì ãîðîäå ïîÿâèëàñü íîâàÿ ïðîáëåìà - íàøà âîäà ñ~ Student1 Entr~
     3 "Îäíàæäû, ñèäÿ ñ îòöîì íà ìåçîíèíå, îí íà÷àë êðèòèêîâàòü ìîåã~ Student1 Entr~
     4 "Äîðîãîé Æåíÿ, Êàê òû? Õîòåëà ðàçãîâàðèâàòü ñ òîáîé î íàøåé ï~ Student2 Entr~
     5 "Ïðèâåò âñåì. Íàäåþñü, ÷òî âñ¸ õîðîøî ñ âàìè. Ðàíüøå, ñåãîäíÿ~ Student2 Entr~
     6 "Â íàøåì âðåìÿ, ó íàñ åñòü ìíîãèå âàðèàíòû, õî÷åòñÿ ëè íàì ãî~ Student2 Entr~
     7 "Äîðîãàÿ Èðèíà! Ñïàñèáî çà âàøå ïèñüìî. Êîíå÷íî, ìîé ëó÷øèé ä~ Student3 Entr~
     8 "Ó íàñ â ãîðîäå Í.  åñòü îãðîìíàÿ ïðîáëåìà - â ñëîâîì, ó íàñ ~ Student3 Entr~
     9 "Ãîâîðÿò, ÷òî  äåòè  íàøåãî âðåìåíè íå óìåþò ðàçãîâàðèâàòü äð~ Student3 Entr~
    10 "Ñåãîäíÿ ÿ õî÷ó ñêàçàòü î ñâîåé ñàìîé  áëèçêîé ïîäðóãîé. Å¸ ç~ Student4 Entr~
    # ... with 14 more rows
…
I need to tokenize my texts

``` r
corpus_df_tidy <- corpus_df3 %>% 
  mutate(text = gsub(x = text, pattern = "\\-\\s", replacement = "")) %>% #to make sure there are no lonely dashes as token
  unnest_tokens(word, text, token = "regex", pattern = "[\\s,\\.\\?!\\(\\)\\:\";]") #let me check if words look like real words in all these 8 texts
corpus_df_tidy %>% 
  filter(str_detect(word, "-")) #Success! 60 words have been identified as 1 word, not two. That's great!
```

    # A tibble: 60 x 4
       Student  Entry  Proficiency  word     
       <chr>    <chr>  <chr>        <chr>    
     1 Student1 Entry1 Intermediate èç-çà    
     2 Student1 Entry2 Intermediate âî-ïåðâûõ
     3 Student1 Entry2 Intermediate ÷òî-òî   
     4 Student1 Entry2 Intermediate èç-çà    
     5 Student1 Entry2 Intermediate ý-ìàéë   
     6 Student1 Entry2 Intermediate âî-ïåðâûõ
     7 Student1 Entry2 Intermediate âî-âòîðûõ
     8 Student1 Entry2 Intermediate â-òðåòüèõ
     9 Student1 Entry3 Intermediate ïî-ìîåìó 
    10 Student1 Entry3 Intermediate èç-çà    
    # ... with 50 more rows
…
``` r
df_LexDens_sep <-corpus_df_tidy %>% 
  group_by(Student, Entry) %>% 
  summarize(total_words = n(),
         lexical_words = sum(!word %in% AllnonLEX_df$word),
         lexical_density = lexical_words/total_words)
```

    `summarise()` has grouped output by 'Student'. You can override using the `.groups` argument.

``` r
df_LexDens_sep
```

    # A tibble: 24 x 5
    # Groups:   Student [8]
       Student  Entry  total_words lexical_words lexical_density
       <chr>    <chr>        <int>         <int>           <dbl>
     1 Student1 Entry1         316           229           0.725
     2 Student1 Entry2         278           219           0.788
     3 Student1 Entry3         282           212           0.752
     4 Student2 Entry1         216           159           0.736
     5 Student2 Entry2         145           108           0.745
     6 Student2 Entry3          92            65           0.707
     7 Student3 Entry1         126           102           0.810
     8 Student3 Entry2         110            83           0.755
     9 Student3 Entry3          57            46           0.807
    10 Student4 Entry1         231           175           0.758
    # ... with 14 more rows
…
``` r
AWL_sep <-corpus_df_tidy %>% 
  group_by(Student, Entry) %>% 
  summarize(total_words = n(),
         total_word_length = sum(str_length(word)),
         AWL = total_word_length/total_words)
```

    `summarise()` has grouped output by 'Student'. You can override using the `.groups` argument.

``` r
AWL_sep #Success! 
```

    # A tibble: 24 x 5
    # Groups:   Student [8]
       Student  Entry  total_words total_word_length   AWL
       <chr>    <chr>        <int>             <int> <dbl>
     1 Student1 Entry1         316              1484  4.70
     2 Student1 Entry2         278              1441  5.18
     3 Student1 Entry3         282              1409  5.00
     4 Student2 Entry1         216               945  4.38
     5 Student2 Entry2         145               672  4.63
     6 Student2 Entry3          92               395  4.29
     7 Student3 Entry1         126               606  4.81
     8 Student3 Entry2         110               479  4.35
     9 Student3 Entry3          57               300  5.26
    10 Student4 Entry1         231              1089  4.71
    # ... with 14 more rows
…
    Joining, by = c("Student", "Entry")

    Joining, by = c("Student", "Entry", "total_words")

``` r
df_for_clustering_sep # I realized that student essays should be looked at together since their proficiency score is given based on their three essays together, not separately.
```

    # A tibble: 24 x 10
       text      Student Entry Proficiency total_words lexical_words lexical_density
       <chr>     <chr>   <chr> <chr>             <int>         <int>           <dbl>
     1 "Ìîÿ äîð~ Studen~ Entr~ Intermedia~         316           229           0.725
     2 "Ðåáÿòà!~ Studen~ Entr~ Intermedia~         278           219           0.788
     3 "Îäíàæäû~ Studen~ Entr~ Intermedia~         282           212           0.752
     4 "Äîðîãîé~ Studen~ Entr~ Intermedia~         216           159           0.736
     5 "Ïðèâåò ~ Studen~ Entr~ Intermedia~         145           108           0.745
     6 "Â íàøåì~ Studen~ Entr~ Intermedia~          92            65           0.707
     7 "Äîðîãàÿ~ Studen~ Entr~ Intermedia~         126           102           0.810
     8 "Ó íàñ â~ Studen~ Entr~ Intermedia~         110            83           0.755
     9 "Ãîâîðÿò~ Studen~ Entr~ Intermedia~          57            46           0.807
    10 "Ñåãîäíÿ~ Studen~ Entr~ Intermedia~         231           175           0.758
    # ... with 14 more rows, and 3 more variables: total_word_length <int>,
    #   AWL <dbl>, MTLD <dbl>
…
    [1] FALSE

``` r
#I need proficiency information to check how good the clustering is at the end
Stud_Prof_label_sep <- df_for_clustering_sep$Proficiency 
#I need only three columns
cluster_sep_numerical <- df_for_clustering_sep %>% 
  select(AWL, MTLD, lexical_density)
cluster_sep_numerical
```

    # A tibble: 24 x 3
         AWL  MTLD lexical_density
       <dbl> <dbl>           <dbl>
     1  4.70 175.            0.725
     2  5.18 211.            0.788
     3  5.00  98.3           0.752
     4  4.38 153.            0.736
     5  4.63 195.            0.745
     6  4.29  65.1           0.707
     7  4.81 103.            0.810
     8  4.35 135.            0.755
     9  5.26 108.            0.807
    10  4.71 196.            0.758
    # ... with 14 more rows
…
